<?xml version="1.0" encoding="UTF-8"?>
<svg width="580px" height="200px" viewBox="0 0 580 200" version="1.1" xmlns="http://www.w3.org/2000/svg" xmlns:xlink="http://www.w3.org/1999/xlink">
    <!-- Generator: Sketch 52.4 (67378) - http://www.bohemiancoding.com/sketch -->
    <title>codility_navy_vector</title>
    <desc>Created with Sketch.</desc>
    <g id="codility_navy_vector" stroke="none" stroke-width="1" fill="none" fill-rule="evenodd">
        <g id="Group" transform="translate(51.000000, 33.000000)" fill="#00318B">
            <path d="M38,44 C35.8951542,43.4291716 33.4844029,43 31,43 C18.9890298,43 16,50.6979105 16,59.8513952 L16,75.3000909 C16,84.4556003 19,92 31,92 C40,92 44.2067776,90.4138683 51,89 L53,101 C48.7202985,102.109513 39.2833582,104 31,104 C8.36029846,104 0,93.1940299 0,73.4981441 L0,61.6553667 C0,41.9574562 8.36029846,31 31,31 C39.5594029,31 47.1333582,33.615133 51,35 L51,55 L38,55 L38,44 Z" id="Fill-1"></path>
            <path d="M95.9309765,93.5109935 C91.79972,93.5109935 88.8053203,92.8058118 86.7143157,91.5469917 L109.282954,56.9749023 L109.282954,83.6829022 C109.282954,89.6335044 105.80539,93.5109935 95.9309765,93.5109935 Z M95.9309765,41.491027 C100.173889,41.491027 103.229191,42.1335708 105.340497,43.3661234 L82.7170459,78.0250977 L82.7170459,51.3191184 C82.7170459,44.9522771 86.1946097,41.491027 95.9309765,41.491027 Z M95.9309765,31 C76.180119,31 67,37.0920426 67,52.1817191 L67,82.8203015 C67,97.9099779 76.180119,104 95.9309765,104 C115.679804,104 125,97.9099779 125,82.8203015 L125,52.1817191 C125,37.0920426 115.679804,31 95.9309765,31 Z" id="Fill-12" fill-rule="nonzero"></path>
            <path d="M161.30254,92.5677609 C165.874258,92.5677609 174.980286,89.0159881 179,87.5 L179,50.5 C174.980286,47.7454858 165.874258,42.286121 161.30254,42.286121 C155.34576,42.286121 154.793757,47.5196977 154.793757,55.373079 L154.793757,78.6544484 C154.793757,86.917991 155.34576,92.5677609 161.30254,92.5677609 Z M194,92 L203,92 L203,104 L179,104 L179,96 C172.766208,99.0319762 162.550107,104 155.208265,104 C139.831038,104 139,91.7414066 139,77.8280942 L139,57.17 C139,43.2586981 139.831038,31 155.208265,31 C162.550107,31 172.766208,37.7315084 179,42 L179,12 L170,12 L170,0 L194,0 L194,92 Z" id="Fill-4" fill-rule="nonzero"></path>
            <polygon id="Fill-5" points="217 104 217 92 226 92 226 43 217 43 217 31 241 31 241 92 250 92 250 104"></polygon>
            <polygon id="Fill-5-Copy" points="311 104 311 92 320 92 320 43 311 43 311 31 335 31 335 92 344 92 344 104"></polygon>
            <polygon id="Fill-5" points="264 104 264 92 273 92 273 12 264 12 264 0 288 0 288 92 297 92 297 104"></polygon>
            <path d="M400,101 C392.278925,103.634229 389.89223,104 384.377177,104 C374.309186,104 367.000733,98.6650415 367.000733,85.2187397 L367.000733,43 L358,43 L358,31 L367.000733,31 L367.000733,16 L383,16 L383,31 L398,31 L398,43 L383,43 L383,84.9395357 C383,88.9616916 384.476281,91 387.648444,91 C390.957475,91 393.724827,90.6630846 398,89 L400,101 Z" id="Fill-8"></path>
            <path d="M414,31 L438.716742,31 L438.716742,79.49869 C438.716742,87.8141129 440.409143,94.499353 446.199949,94.499353 C451.026627,94.499353 459.278345,89.887927 463,88.5 L463,43 L454,43 L454,31 L478,31 L478,112.19927 C478,131.466368 466.850346,135 458.3,135 C450.162277,135 433.13513,130.187164 421,127.000597 L422.99826,116 C434.716742,118.909386 451.141087,123.456981 455.69,123.456981 C462.724712,123.456981 463,117.465704 463,107.207993 L463,96 C456.935454,99.0510116 446.578712,104.003366 439.131377,104.003366 C423.826098,104.003366 422.996827,92.6678114 422.996827,78.667148 L422.996827,43 L414,43 L414,31 Z" id="Fill-10"></path>
        </g>
    </g>
</svg>